[{
	"aId": "1",
	"aName":"安东尼桑普森"
},{
	"aId": "2",
	"aName":"埃米尔路德维希"
},{
	"aId": "3",
	"aName":"大卫赫伯特唐纳德"
},{
	"aId": "4",
	"aName":"乔希姆费斯特"
},{
	"aId": "5",
	"aName":"孙武"
},{
	"aId": "6",
	"aName":"雅瑟"
},{
	"aId": "7",
	"aName":"刘澍shu"
},{
	"aId": "8",
	"aName":"当年明月"
},{
	"aId": "9",
	"aName":"黄为伟"
},{
	"aId": "10",
	"aName":"林昊"
},{
	"aId": "11",
	"aName":"奇舞团"
},{
	"aId": "12",
	"aName":"贾平凹"
},{
	"aId": "13",
	"aName":"莫言"
},{
	"aId": "14",
	"aName":"张德芬"
},{
	"aId": "15",
	"aName":"东野圭吾"
}
]	